iteration 100 / 2608 
elapsed time (min): 7.238583 

iteration 200 / 2608 
elapsed time (min): 13.64702 

iteration 300 / 2608 
elapsed time (min): 23.30847 

iteration 400 / 2608 
elapsed time (min): 29.84295 

iteration 500 / 2608 
elapsed time (min): 36.9024 

iteration 600 / 2608 
elapsed time (min): 44.73707 

iteration 700 / 2608 
elapsed time (min): 50.97577 

iteration 800 / 2608 
elapsed time (min): 59.14107 

iteration 900 / 2608 
elapsed time (min): 66.3972 

iteration 1000 / 2608 
elapsed time (min): 74.97318 

iteration 1100 / 2608 
elapsed time (min): 82.2562 

iteration 1200 / 2608 
elapsed time (min): 91.5786 

iteration 1300 / 2608 
elapsed time (min): 96.7903 

iteration 1400 / 2608 
elapsed time (min): 104.9296 

iteration 1500 / 2608 
elapsed time (min): 109.1842 

iteration 1600 / 2608 
elapsed time (min): 120.6084 

iteration 1700 / 2608 
elapsed time (min): 124.0049 

iteration 1800 / 2608 
elapsed time (min): 136.559 

iteration 1900 / 2608 
elapsed time (min): 140.1363 

iteration 2000 / 2608 
elapsed time (min): 151.394 

iteration 2100 / 2608 
elapsed time (min): 155.1026 

iteration 2200 / 2608 
elapsed time (min): 167.0008 

iteration 2300 / 2608 
elapsed time (min): 170.4293 

iteration 2400 / 2608 
elapsed time (min): 182.4572 

iteration 2500 / 2608 
elapsed time (min): 185.7277 

iteration 2600 / 2608 
elapsed time (min): 198.2097 

total time (hours):  3.536248 
